{
  "dev": {
    "awscloudformation": {
      "AuthRoleName": "amplify-appaforo-dev-215654-authRole",
      "UnauthRoleArn": "arn:aws:iam::892787803289:role/amplify-appaforo-dev-215654-unauthRole",
      "AuthRoleArn": "arn:aws:iam::892787803289:role/amplify-appaforo-dev-215654-authRole",
      "Region": "us-east-2",
      "DeploymentBucketName": "amplify-appaforo-dev-215654-deployment",
      "UnauthRoleName": "amplify-appaforo-dev-215654-unauthRole",
      "StackName": "amplify-appaforo-dev-215654",
      "StackId": "arn:aws:cloudformation:us-east-2:892787803289:stack/amplify-appaforo-dev-215654/f41d1c40-0486-11ec-b0d9-06a01054ef24",
      "AmplifyAppId": "d36dy1dzzvw3mf"
    },
    "categories": {
      "auth": {
        "appaforo5c6c5353": {}
      },
      "function": {
        "appaforo5f37a4fe": {
          "deploymentBucketName": "amplify-appaforo-dev-215654-deployment",
          "s3Key": "amplify-builds/appaforo5f37a4fe-614543382b6259555553-build.zip"
        }
      }
    }
  }
}